R Notebook
…
R Notebook

Load the library

library(readxl)

bus <- read_excel("data/bus_efficiency_revised.xlsx", sheet = 2)
print(bus)

## # A tibble: 6,181 x 8
##    Year  Name   Times Length Customer Average.Customer Profit
##    <chr> <chr>  <dbl>  <dbl>    <dbl>            <dbl>  <dbl>
##  1 86    0   182794 1.73e6  6337370            34.7  7.63e7
##  2 86    0   200842 1.14e6  3824258            19.0  4.59e7
##  3 86    0   107793 6.76e5  2307551            21.4  2.64e7
##  4 86    1   150687 1.19e6  5135207            34.1  6.27e7
##  5 86    2    12752 1.19e5   207289            16.3  2.49e6
##  6 86    3    40890 3.60e5  1380035            33.8  1.62e7
##  7 86    5   118253 8.35e5  3163583            26.8  3.85e7
##  8 86    9    59252 5.94e5  2266446            38.2  2.66e7
##  9 86    10   16218 1.87e5   315788            19.5  3.71e6
## 10 86    11     580 5.57e3     5370             9.26 6.49e4
## # ... with 6,171 more rows, and 1 more variable: Average.Profit <dbl>
…
